<?xml version="1.0" encoding="UTF-8" standalone="no"?>
<svg width="476px" height="367px" viewBox="0 0 476 367" version="1.1" xmlns="http://www.w3.org/2000/svg" xmlns:xlink="http://www.w3.org/1999/xlink" xmlns:sketch="http://www.bohemiancoding.com/sketch/ns">
    <!-- Generator: Sketch 3.4 (15575) - http://www.bohemiancoding.com/sketch -->
    <title>Page 1 Copy</title>
    <desc>Created with Sketch.</desc>
    <defs></defs>
    <g id="v2" stroke="none" stroke-width="1" fill="none" fill-rule="evenodd" sketch:type="MSPage">
        <g id="Page-1-Copy" sketch:type="MSLayerGroup">
            <g id="Fill-1-+-Fill-2" sketch:type="MSShapeGroup">
                <path d="M301.0838,0.9349 L150.9578,1.0649 L323.9588,366.9999 L475.1188,366.9999 L302.1198,0.9349 L301.0838,0.9349 Z" id="Fill-1" fill="#00AFAC"></path>
                <path d="M150.1259,0.9349 L-0.0001,1.0649 L172.9999,366.9999 L324.1609,366.9999 L151.1619,0.9349 L150.1259,0.9349 Z" id="Fill-2" fill="#007876"></path>
            </g>
        </g>
    </g>
</svg>