<?xml version="1.0" encoding="UTF-8" standalone="no"?>
<svg width="101px" height="113px" viewBox="0 0 101 113" version="1.1" xmlns="http://www.w3.org/2000/svg" xmlns:xlink="http://www.w3.org/1999/xlink" xmlns:sketch="http://www.bohemiancoding.com/sketch/ns">
    <!-- Generator: Sketch 3.4.2 (15855) - http://www.bohemiancoding.com/sketch -->
    <title>moduleKitebottom + moduleKitetop</title>
    <desc>Created with Sketch.</desc>
    <defs>
        <linearGradient x1="33.3145078%" y1="100%" x2="58.8569498%" y2="28.2748325%" id="linearGradient-1">
            <stop stop-color="#FFFFFF" offset="0%"></stop>
            <stop stop-color="#DEE8EB" offset="51.0516358%"></stop>
            <stop stop-color="#BED1D7" offset="100%"></stop>
        </linearGradient>
        <radialGradient cx="38.7009604%" cy="40.3500657%" fx="38.7009604%" fy="40.3500657%" r="80.3339678%" id="radialGradient-2">
            <stop stop-color="#00AEAC" offset="0%"></stop>
            <stop stop-color="#076867" offset="100%"></stop>
        </radialGradient>
        <filter x="-50%" y="-50%" width="200%" height="200%" filterUnits="objectBoundingBox" id="filter-3">
            <feOffset dx="0" dy="1" in="SourceAlpha" result="shadowOffsetInner1"></feOffset>
            <feGaussianBlur stdDeviation="3.5" in="shadowOffsetInner1" result="shadowBlurInner1"></feGaussianBlur>
            <feComposite in="shadowBlurInner1" in2="SourceAlpha" operator="arithmetic" k2="-1" k3="1" result="shadowInnerInner1"></feComposite>
            <feColorMatrix values="0 0 0 0 0   0 0 0 0 0   0 0 0 0 0  0 0 0 0.0800894475 0" in="shadowInnerInner1" type="matrix" result="shadowMatrixInner1"></feColorMatrix>
            <feMerge>
                <feMergeNode in="SourceGraphic"></feMergeNode>
                <feMergeNode in="shadowMatrixInner1"></feMergeNode>
            </feMerge>
        </filter>
        <path id="path-4" d="M25.610733,7.18897024 C35.9189181,4.59702756 73.9927596,0.828804558 88.1174212,1.12683064 C98.8692894,1.12683064 97.9780702,2.27965182 97.9780666,3.77500379 C86.7383136,7.1889702 70.4371333,26.8010825 58.7978993,46.6623691 C47.1586654,66.5236557 31.5238331,95.2071373 26.4632274,100.665032 C21.4026216,106.122927 16.8741032,107.940796 14.3709808,109.262029 C11.8678583,110.583262 7.63174169,111.106442 6.7001752,111.106444 C5.76860871,111.106447 4.59653127,112.302662 3.37091544,110.283564 C2.14529962,108.264467 2.03987033,100.016831 1.05394174,85.0893997 C0.0680131595,70.161968 -0.464899166,64.4300644 2.03904681,51.0482067 C4.54299278,37.666349 5.47620711,33.2051586 10.9890064,23.7604507 C16.5018056,14.3157429 21.110219,8.7088573 25.610733,7.18897024 Z"></path>
    </defs>
    <g id="v2" stroke="none" stroke-width="1" fill="none" fill-rule="evenodd" sketch:type="MSPage">
        <g id="Lessons---DESKTOP" sketch:type="MSArtboardGroup" transform="translate(-120.000000, -2225.000000)">
            <g id="moduleKitebottom-+-moduleKitetop" sketch:type="MSLayerGroup" transform="translate(120.000000, 2224.000000)">
                <g>
                    <g id="moduleKitebottom" transform="translate(55.343167, 4.995538)" sketch:type="MSShapeGroup">
                        <path d="M8.99604817,41.4328453 C8.99604817,42.2342324 9.8526975,48.9577448 10.4853975,48.9577448 C11.1180975,48.9577448 14.9528698,48.453212 19.1232782,46.066407 C23.2936866,43.6796021 33.3092298,37.5659579 35.6362302,31.6438327 C37.9632306,25.7217074 44.832545,13.512374 42.9522918,8.7567189 C41.0720386,4.00106382 41.5003633,1.24917581 40.3834952,1.24917581 C39.2666272,1.24917581 8.36334816,8.40839379 8.36334816,9.29656295 C8.36334816,10.1847321 8.99604817,40.6314582 8.99604817,41.4328453 Z" id="Path-1041-Copy" fill="url(#linearGradient-1)"></path>
                        <path d="M40.576946,2.39631665 C39.8231118,4.13529655 40.8927204,3.43639785 40.8927204,4.18717711 C42.7334989,7.34668149 43.0316634,8.54208317 41.7413854,15.5750867 C40.4802763,22.449097 37.3263088,27.7792688 34.419455,31.4990282 C31.5126012,35.2187877 28.3945956,38.6380781 24.3509364,41.5721318 C20.3072771,44.5061855 17.0187512,46.7908699 14.482875,47.5296916 C11.9469988,48.2685133 10.0534777,48.5010545 10.0534777,48.5010537 C10.0534777,48.5010529 9.50954887,49.9997361 10.3301813,49.9997358 C11.1508137,49.9997355 12.6428942,49.8983397 15.5013276,48.8990071 C18.3597609,47.8996745 23.1735844,44.7958658 26.8895913,41.9563523 C30.6055982,39.1168389 31.6488083,38.0085566 35.7400443,32.7467524 C39.8312803,27.4849482 43.3132471,20.3298659 44.1537531,15.5750867 C44.9942591,10.8203074 45.7852329,2.81270564 44.1537524,1.00888351 C42.5222718,-0.794938619 41.7413862,1.0088835 41.7413862,1.0088835 C41.7413862,1.0088835 41.3307802,0.65733674 40.576946,2.39631665 Z" id="Path-1039-Copy" fill="#00AFAC"></path>
                        <rect id="rib" fill="#007876" x="14.9408397" y="17.0048888" width="25" height="3" rx="13"></rect>
                        <rect id="rib" fill="#007876" x="9.87674927" y="28.0048888" width="25" height="3" rx="13"></rect>
                        <rect id="rib-copy" fill="#007876" x="0.876749266" y="38.0048888" width="25" height="3" rx="13"></rect>
                    </g>
                    <g id="moduleKitetop" transform="translate(0.000000, 0.798822)">
                        <path d="M6.56811117,112.336646 C9.41801922,113.283693 16.0284607,111.876465 21.5901397,107.950808 C30.2281754,101.853736 36.7786276,90.1863684 45.1881833,75.7035102 C52.8981004,62.4255632 68.476828,35.5901522 76.3873185,25.4475789 C84.297809,15.3050056 90.9460129,8.38938335 93.8222544,8.38938335 C96.6984959,8.38938335 96.5932018,6.83533363 96.5932038,6.8353336 C96.5932057,6.83533357 99.3791228,7.71691936 99.063762,6.83533367 C98.3478232,4.91532098 98.494201,4.1905763 96.5932038,2.76038342 C93.3174834,2.76038349 83.7020009,8.76767669 74.9925535,17.9632078 C66.283106,27.1587389 43.083715,63.2943813 40.5534122,69.4989452 C38.0231094,75.703509 27.1301199,96.6111644 24.36013,98.679924 C21.59014,100.748684 12.1080917,109.795227 9.33810141,108.873016 C6.56811117,107.950805 4.03780786,110.841591 4.03780786,110.841591 C4.03780786,110.841591 3.71820311,111.389599 6.56811117,112.336646 Z" id="Path-1038-Copy-2" fill="#00AFAC" sketch:type="MSShapeGroup"></path>
                        <path d="M25.610733,6.62326604 C35.9189181,4.03132336 73.9927596,0.263100357 88.1174212,0.561126439 C98.8692894,0.561126439 97.9780702,1.71394762 97.9780666,3.20929959 C86.7383136,6.623266 70.4371333,26.2353783 58.7978993,46.0966649 C47.1586654,65.9579515 31.5238331,94.6414331 26.4632274,100.099328 C21.4026216,105.557223 16.8741032,107.375091 14.3709808,108.696325 C11.8678583,110.017558 7.63174169,110.540738 6.7001752,110.54074 C5.76860871,110.540743 4.59653127,111.736958 3.37091544,109.71786 C2.14529962,107.698763 2.03987033,99.4511271 1.05394174,84.5236955 C0.0680131595,69.5962638 -0.464899166,63.8643602 2.03904681,50.4825025 C4.54299278,37.1006448 5.47620711,32.6394544 10.9890064,23.1947465 C16.5018056,13.7500387 21.110219,8.1431531 25.610733,6.62326604 Z" id="Path-1037-Copy" fill="url(#radialGradient-2)" filter="url(#filter-3)" sketch:type="MSShapeGroup"></path>
                        <g id="Rectangle-157-+-Rectangle-157-Copy-+-Rectangle-157-Copy-2">
                            <mask id="mask-5" sketch:name="Mask" fill="white">
                                <use xlink:href="#path-4"></use>
                            </mask>
                            <use id="Mask" fill="url(#radialGradient-2)" sketch:type="MSShapeGroup" xlink:href="#path-4"></use>
                            <g mask="url(#mask-5)" sketch:type="MSShapeGroup">
                                <g transform="translate(51.591702, 33.905049) rotate(-20.000000) translate(-51.591702, -33.905049) translate(-16.431554, 16.463188)">
                                    <rect id="Rectangle-157" fill="#FFFFFF" x="0.285541087" y="-1.77635684e-13" width="134.694856" height="11.627907"></rect>
                                    <rect id="Rectangle-157-Copy" fill="#00AFAC" x="0.285541087" y="11.627907" width="134.694856" height="11.627907"></rect>
                                    <rect id="Rectangle-157-Copy-2" fill="#14204B" x="0.285541087" y="23.255814" width="134.694856" height="11.627907"></rect>
                                </g>
                            </g>
                        </g>
                    </g>
                </g>
            </g>
        </g>
    </g>
</svg>