<?xml version="1.0" encoding="UTF-8" standalone="no"?>
<svg width="45px" height="50px" viewBox="0 0 45 50" version="1.1" xmlns="http://www.w3.org/2000/svg" xmlns:xlink="http://www.w3.org/1999/xlink" xmlns:sketch="http://www.bohemiancoding.com/sketch/ns">
    <!-- Generator: Sketch 3.4.2 (15855) - http://www.bohemiancoding.com/sketch -->
    <title>moduleKitebottom Copy 2</title>
    <desc>Created with Sketch.</desc>
    <defs>
        <linearGradient x1="33.3145078%" y1="100%" x2="58.8569498%" y2="28.2748325%" id="linearGradient-1">
            <stop stop-color="#FFFFFF" offset="0%"></stop>
            <stop stop-color="#DEE8EB" offset="51.0516358%"></stop>
            <stop stop-color="#BED1D7" offset="100%"></stop>
        </linearGradient>
    </defs>
    <g id="v2" stroke="none" stroke-width="1" fill="none" fill-rule="evenodd" sketch:type="MSPage">
        <g id="Lessons---DESKTOP" sketch:type="MSArtboardGroup" transform="translate(-706.000000, -2228.000000)">
            <g id="moduleKitebottom-Copy-2" sketch:type="MSLayerGroup" transform="translate(705.775154, 2227.995538)">
                <path d="M8.99604817,41.4328453 C8.99604817,42.2342324 9.8526975,48.9577448 10.4853975,48.9577448 C11.1180975,48.9577448 14.9528698,48.453212 19.1232782,46.066407 C23.2936866,43.6796021 33.3092298,37.5659579 35.6362302,31.6438327 C37.9632306,25.7217074 44.832545,13.512374 42.9522918,8.7567189 C41.0720386,4.00106382 41.5003633,1.24917581 40.3834952,1.24917581 C39.2666272,1.24917581 8.36334816,8.40839379 8.36334816,9.29656295 C8.36334816,10.1847321 8.99604817,40.6314582 8.99604817,41.4328453 Z" id="Path-1041-Copy" fill="url(#linearGradient-1)" sketch:type="MSShapeGroup"></path>
                <path d="M40.576946,2.39631665 C39.8231118,4.13529655 40.8927204,3.43639785 40.8927204,4.18717711 C42.7334989,7.34668149 43.0316634,8.54208317 41.7413854,15.5750867 C40.4802763,22.449097 37.3263088,27.7792688 34.419455,31.4990282 C31.5126012,35.2187877 28.3945956,38.6380781 24.3509364,41.5721318 C20.3072771,44.5061855 17.0187512,46.7908699 14.482875,47.5296916 C11.9469988,48.2685133 10.0534777,48.5010545 10.0534777,48.5010537 C10.0534777,48.5010529 9.50954887,49.9997361 10.3301813,49.9997358 C11.1508137,49.9997355 12.6428942,49.8983397 15.5013276,48.8990071 C18.3597609,47.8996745 23.1735844,44.7958658 26.8895913,41.9563523 C30.6055982,39.1168389 31.6488083,38.0085566 35.7400443,32.7467524 C39.8312803,27.4849482 43.3132471,20.3298659 44.1537531,15.5750867 C44.9942591,10.8203074 45.7852329,2.81270564 44.1537524,1.00888351 C42.5222718,-0.794938619 41.7413862,1.0088835 41.7413862,1.0088835 C41.7413862,1.0088835 41.3307802,0.65733674 40.576946,2.39631665 Z" id="Path-1039-Copy" fill="#00AFAC" sketch:type="MSShapeGroup"></path>
                <rect id="rib" fill="#007876" sketch:type="MSShapeGroup" x="14.9408397" y="17.0048888" width="25" height="3" rx="13"></rect>
                <rect id="rib" fill="#007876" sketch:type="MSShapeGroup" x="9.87674927" y="28.0048888" width="25" height="3" rx="13"></rect>
                <rect id="rib-copy" fill="#007876" sketch:type="MSShapeGroup" x="0.876749266" y="38.0048888" width="25" height="3" rx="13"></rect>
            </g>
        </g>
    </g>
</svg>